…
##### Combinar todas las listas en una sola, quitar columnas innecesarias

``` r
# combine all files into one
finalFile<-filesWithColumns %>% map_df(~filesWithColumns,.x)

# remove unnecessary columns
finalFile$TIPO<-NULL
finalFile$...10<-NULL

finalFile
```

    ## # A tibble: 23,980 x 9
    ##    COD_VIAJE CLIENTE     UBICACION CANTIDAD PILOTO        Q CREDITO UNIDAD FECHA
    ##        <dbl> <chr>           <dbl>    <dbl> <chr>     <dbl>   <dbl> <chr>  <chr>
    ##  1  10000001 EL PINCHE ~     76002     1200 Fernando~ 300        30 Camio~ 01-2~
    ##  2  10000002 TAQUERIA E~     76002     1433 Hector A~ 358.       90 Camio~ 01-2~
    ##  3  10000003 TIENDA LA ~     76002     1857 Pedro Al~ 464.       60 Camio~ 01-2~
    ##  4  10000004 TAQUERIA E~     76002      339 Angel Va~  84.8      30 Panel  01-2~
    ##  5  10000005 CHICHARRON~     76001     1644 Juan Fra~ 411        30 Camio~ 01-2~
    ##  6  10000006 UBIQUO LAB~     76001     1827 Luis Jai~ 457.       30 Camio~ 01-2~
    ##  7  10000007 CHICHARRON~     76002     1947 Ismael R~ 487.       90 Camio~ 01-2~
    ##  8  10000008 TAQUERIA E~     76001     1716 Juan Fra~ 429        60 Camio~ 01-2~
    ##  9  10000009 EL GALLO N~     76002     1601 Ismael R~ 400.       30 Camio~ 01-2~
    ## 10  10000010 CHICHARRON~     76002     1343 Fernando~ 336.       90 Camio~ 01-2~
    ## # ... with 23,970 more rows
…
