Laboratorio 4
…
compra <- round(cg/p)
compra

##   max_p
## 1     4

Si pretendemos reemplazar las paneles con camiones grandes se deben comprar 4.

Las tarifas actuales son aceptables por el cliente?

Por cada cliente se contabiliz las unidades y sus pagos mensuales para saber el impacto que han tenido las tarifas.

tarifas_clientes

## # A tibble: 198 x 6
## # Groups:   CLIENTE [13]
##    CLIENTE     MES viajes_mes costo unidades tarifa
##    <list>    <dbl>      <int> <dbl>    <dbl>  <dbl>
##  1 <chr [1]>     1         10 2784     11136      4
##  2 <chr [1]>     2         22 6944.    27775      4
##  3 <chr [1]>     3          9 2995.    11981      4
##  4 <chr [1]>     4         11 2530.    10121      4
##  5 <chr [1]>     5          9 2954.    11818      4
##  6 <chr [1]>     6          9 2025.     8099      4
##  7 <chr [1]>     7         14 4461.    17843      4
##  8 <chr [1]>     8         14 3457.    13829      4
##  9 <chr [1]>     9          8 2308.     9231      4
## 10 <chr [1]>    10         13 3142.    12567      4
## # ... with 188 more rows
…
pago_pilotos <- function(piloto){
  data <- cobros_pilotos %>% filter(PILOTO==piloto)
  lapply(data$tarifa_cobrada, checar_tarifa)
}

checar_tarifa <- function (tarifa){
  if(tarifa!=4){
    print('Hay una anomalia en la tarifa')
  }
}
pilotos_cobros <- lapply(unique(cobros_pilotos$PILOTO), pago_pilotos)
cobros_pilotos

## # A tibble: 2,180 x 5
## # Groups:   PILOTO, MES [99]
##    PILOTO                 MES cobro cantidad tarifa_cobrada
##    <chr>                <dbl> <dbl>    <dbl>          <dbl>
##  1 Angel Valdez Alegria     1  84.8      339              4
##  2 Angel Valdez Alegria     1 332.      1330              4
##  3 Angel Valdez Alegria     1  74.2      297              4
##  4 Angel Valdez Alegria     1 477.      1907              4
##  5 Angel Valdez Alegria     1 282.      1126              4
##  6 Angel Valdez Alegria     1 157        628              4
##  7 Angel Valdez Alegria     1 305.      1221              4
##  8 Angel Valdez Alegria     1 314       1256              4
##  9 Angel Valdez Alegria     1 207.       829              4
## 10 Angel Valdez Alegria     1 478       1912              4
## # ... with 2,170 more rows
…
